TRACE.vcd
$date
     Dec 12, 2017       16:06:33
$end

$version
 SystemC 2.3.2-Accellera --- Dec 11 2017 12:32:02
$end

$timescale
     1 ps
$end

$scope module SystemC $end
$var wire    1  aaaaa  S0       $end
$var wire    1  aaaab  S1       $end
$var wire    1  aaaac  S2       $end
$var wire    1  aaaad  EN       $end
$var wire    1  aaaae  I0       $end
$var wire    1  aaaaf  I1       $end
$var wire    1  aaaag  I2       $end
$var wire    1  aaaah  I3       $end
$var wire    1  aaaai  I4       $end
$var wire    1  aaaaj  I5       $end
$var wire    1  aaaak  I6       $end
$var wire    1  aaaal  I7       $end
$var wire    1  aaaam  OUT       $end
$upscope $end
$enddefinitions  $end

$comment
All initial values are dumped below at time 0 sec = 0 timescale units.
$end

$dumpvars
0aaaaa
0aaaab
0aaaac
1aaaad
1aaaae
0aaaaf
0aaaag
0aaaah
0aaaai
0aaaaj
0aaaak
0aaaal
1aaaam
$end

#50000000000
0aaaae
1aaaaf
1aaaag
1aaaah
1aaaai
1aaaaj
1aaaak
1aaaal
0aaaam

#100000000000
1aaaac
0aaaag
0aaaah
0aaaai
0aaaaj
0aaaak
0aaaal
1aaaam

#150000000000
1aaaae
0aaaaf
1aaaag
1aaaah
1aaaai
1aaaaj
1aaaak
1aaaal
0aaaam

#200000000000
1aaaab
0aaaae
0aaaag
0aaaai
0aaaaj
0aaaak
0aaaal
1aaaam

#250000000000
1aaaae
1aaaaf
1aaaag
0aaaah
1aaaai
1aaaaj
1aaaak
1aaaal
0aaaam

#300000000000
0aaaac
0aaaae
0aaaaf
0aaaai
0aaaaj
0aaaak
0aaaal
1aaaam

#350000000000
1aaaae
1aaaaf
0aaaag
1aaaah
1aaaai
1aaaaj
1aaaak
1aaaal
0aaaam

#400000000000
1aaaaa
0aaaae
0aaaaf
0aaaah
0aaaai
0aaaaj
0aaaal
1aaaam

#450000000000
1aaaae
1aaaaf
1aaaag
1aaaah
1aaaai
1aaaaj
0aaaak
1aaaal
0aaaam

#500000000000
1aaaac
0aaaae
0aaaaf
0aaaag
0aaaah
0aaaai
0aaaaj
1aaaam

#550000000000
1aaaae
1aaaaf
1aaaag
1aaaah
1aaaai
1aaaaj
1aaaak
0aaaal
0aaaam

#600000000000
0aaaab
0aaaae
0aaaaf
0aaaag
0aaaah
0aaaai
0aaaak
1aaaam

#650000000000
1aaaae
1aaaaf
1aaaag
1aaaah
1aaaai
0aaaaj
1aaaak
1aaaal
0aaaam

#700000000000
0aaaac
0aaaae
0aaaaf
0aaaag
0aaaah
0aaaak
0aaaal
1aaaam

#750000000000
1aaaae
1aaaaf
1aaaag
1aaaah
0aaaai
1aaaaj
1aaaak
1aaaal
0aaaam

#800000000000
0aaaaa
0aaaad
0aaaaf
0aaaag
0aaaah
0aaaaj
0aaaak
0aaaal

#850000000000
0aaaae
1aaaaf
1aaaag
1aaaah
1aaaai
1aaaaj
1aaaak
1aaaal

#900000000000
1aaaac
0aaaag
0aaaah
0aaaai
0aaaaj
0aaaak
0aaaal

#950000000000
1aaaae
0aaaaf
1aaaag
1aaaah
1aaaai
1aaaaj
1aaaak
1aaaal

#1000000000000
1aaaab
0aaaae
0aaaag
0aaaai
0aaaaj
0aaaak
0aaaal

#1050000000000
1aaaae
1aaaaf
1aaaag
0aaaah
1aaaai
1aaaaj
1aaaak
1aaaal

#1100000000000
0aaaac
0aaaae
0aaaaf
0aaaai
0aaaaj
0aaaak
0aaaal

#1150000000000
1aaaae
1aaaaf
0aaaag
1aaaah
1aaaai
1aaaaj
1aaaak
1aaaal

#1200000000000
1aaaaa
0aaaae
0aaaaf
0aaaah
0aaaai
0aaaaj
0aaaal

#1250000000000
1aaaae
1aaaaf
1aaaag
1aaaah
1aaaai
1aaaaj
0aaaak
1aaaal

#1300000000000
1aaaac
0aaaae
0aaaaf
0aaaag
0aaaah
0aaaai
0aaaaj

#1350000000000
1aaaae
1aaaaf
1aaaag
1aaaah
1aaaai
1aaaaj
1aaaak
0aaaal

#1400000000000
0aaaab
0aaaae
0aaaaf
0aaaag
0aaaah
0aaaai
0aaaak

#1450000000000
1aaaae
1aaaaf
1aaaag
1aaaah
1aaaai
0aaaaj
1aaaak
1aaaal

#1500000000000
0aaaac
0aaaae
0aaaaf
0aaaag
0aaaah
0aaaak
0aaaal

#1550000000000
1aaaae
1aaaaf
1aaaag
1aaaah
0aaaai
1aaaaj
1aaaak
1aaaal

